{
    "name": "devnet",

    "wallets": [{
            "name": "playground_manager",
            "addr": "dn1XXX",
            "skey": "unencrypted:edsk",
            "dun_airdrop": 0
        },
        {
            "name": "airdrop_manager",
            "addr": "dn1XXX",
            "skey": "unencrypted:edsk",
            "dun_airdrop": 100
        },
        {
            "name": "serverless_rps_manager",
            "addr": "dn1XXX",
            "skey": "unencrypted:edsk",
            "dun_airdrop": 100
        },
        {
            "name": "rps_with_server_manager",
            "addr": "dn1XXX",
            "skey": "unencrypted:edsk",
            "dun_airdrop": 100
        },
        {
            "name": "serverless_moonshot_manager",
            "addr": "dn1XXX",
            "skey": "unencrypted:edsk",
            "dun_airdrop": 100
        },
        {
            "name": "moonshot_with_server_manager",
            "addr": "dn1XXX",
            "skey": "unencrypted:edsk",
            "dun_airdrop": 100
        },
        {
            "name": "hourly_raffle_manager",
            "addr": "dn1XXX",
            "skey": "unencrypted:edsk",
            "dun_airdrop": 100
        },
        {
            "name": "daily_raffle_manager",
            "addr": "dn1XXX",
            "skey": "unencrypted:edsk",
            "dun_airdrop": 100
        },
        {
            "name": "weekly_raffle_manager",
            "addr": "dn1XXX",
            "skey": "unencrypted:edsk",
            "dun_airdrop": 100
        },
        {
            "name": "test_wallet",
            "addr": "dn1XXX",
            "skey": "unencrypted:edsk",
            "dun_airdrop": 100
        }
    ],

    "contracts": [{
            "name": "dgg_token",
            "addr": "KT1XXX",
            "dun_airdrop": 0,
            "dgg_airdrop": 0
        },
        {
            "name": "dgg_token_exchange",
            "addr": "KT1XXX",
            "dun_airdrop": 100,
            "dgg_airdrop": 0
        },
        {
            "name": "airdrop_contract",
            "addr": "KT1XXX",
            "dun_airdrop": 0,
            "dgg_airdrop": 0
        },
        {
            "name": "rps_with_server",
            "addr": "KT1XXX",
            "dun_airdrop": 100,
            "dgg_airdrop": 10000,
            "nb_unrevealed_commits": 100
        },
        {
            "name": "serverless_rps",
            "addr": "KT1XXX",
            "dun_airdrop": 0,
            "dgg_airdrop": 10000,
            "nb_unrevealed_commits": 10
        },
        {
            "name": "moonshot_with_server",
            "addr": "KT1XXX",
            "dun_airdrop": 100,
            "dgg_airdrop": 10000,
            "nb_unrevealed_commits": 100
        },
        {
            "name": "serverless_moonshot",
            "addr": "KT1XXX",
            "dun_airdrop": 0,
            "dgg_airdrop": 10000,
            "nb_unrevealed_commits": 10
        },
        {
            "family": "raffle",
            "name": "hourly_raffle",
            "addr": "KT1XXX",
            "dun_airdrop": 100,
            "dgg_airdrop": 1000000,
            "nb_unrevealed_commits": 1,
            "balance_checker": "available_balance"
        },
        {
            "family": "raffle",
            "name": "daily_raffle",
            "addr": "KT1XXX",
            "dun_airdrop": 100,
            "dgg_airdrop": 1000000,
            "nb_unrevealed_commits": 1,
            "balance_checker": "available_balance"
        },
        {
            "family": "raffle",
            "name": "weekly_raffle",
            "addr": "KT1XXX",
            "dun_airdrop": 100,
            "dgg_airdrop": 1000000,
            "nb_unrevealed_commits": 1,
            "balance_checker": "available_balance"
        }
    ],

    "programs_extra_args": {
        "raffle_crawler": "--head head --stop 0"
    },

    "node_info": {
        "comment": "Can add more nodes in the future",
        "comment2": "Used by the backend",
        "addr": "devnet-node.dunscan.io",
        "port": 443,
        "https": true
    },

    "public_node_info": {
        "comment": "Can add more nodes in the future",
        "comment2": "Node that can be accessed from Internet. Used for instance by the website",
        "addr": "devnet-node.dunscan.io",
        "port": 443,
        "https": true
    },

    "explorer_info": {
        "addr": "devnet.dunscan.io",
        "port": 443,
        "https": true
    },

    "explorer_api_info": {
        "comment": "Can add more nodes in the future",
        "addr": "api.devnet.dunscan.io",
        "port": 8081,
        "https": false
    },

    "operations_ttl": 4,
    "time_between_blocks": 5,
    "dune_config": "devnet",
    "client_base_dir": "$HOME/.dune-devnet-client",

    "start_local_node_info": {
        "enabled": false,
        "comment": "If a local node is enabled, make sure to use its address and RPC_PORT in 'node_info' field",
        "addr": "127.0.0.1",
        "rpc_port": 7703,
        "p2p_port": 9903,
        "data_dir": "/absolute/path/to/node-data-dir",
        "dune_context_storage": "ironmin",
        "comment2": "Bootstrap peers not needed for mainnet, testnet and devnet",
        "bootstrap_peers": [
            "--peer <P2P-ADDRESS>:<P2P-PORT>"
        ]
    },

    "database": {
        "user": "dune_playground_devnet_user",
        "host": "localhost",
        "database": "dune_playground_devnet_db",
        "port": 5432,
        "password": "dune_playground_devnet_password"
    },

    "duns_airdrop": {
        "operations_per_airdrop": 5,
        "dun_per_dn1": 0.3,
        "blocking_airdrop_period": 5,
        "comment": "blocking_airdrop_period will be the max of the above value and of operations_ttl"
    },

    "local_api_server": {
        "addr": "127.0.0.1",
        "port": 3303,
        "https": false
    },

    "public_api_server": {
        "comment": "provide informations of local_api_server if you're testing on localhost",
        "addr": "127.0.0.1",
        "port": 3303,
        "https": false
    },

    "dune_network_directory": "</absolute/path/to/compiled/dune-network/directory>",
    "love_standalone_directory": "</absolute/path/to/compiled/love_standalone/directory>",

    "alert_email_addresses": [
        "<foor@bar.com>",
        "<dune@playground.example>"
    ],

    "unix_user": "<user-on-this-machine>",
    "unix_group": "<user-s-group-on-this-machine>",
    "root_path": "</absolute/path/to/the/root/dir/of/the/git/repo>",

    "google_captcha_secret_key": "<SECRET_KEY>",

    "front_debug_level": 1,
    "back_debug_level": 1
}
